project_2/project_2.sim/sim_1/behav/simulate.log
Vivado Simulator 2017.2
Time resolution is 1 ps
Single cycle simulation:
==========================================================
Time:           0 ns, Clock = 0, PC = 0x00000000
[$zero] = 0x00000000, [$t0] = 0x00000020, [$t1] = 0x00000000
[$s0] = 0x00000000, [$s1] = 0x00000000, [$s2] = 0x00000000
[$s3] = 0x00000000, [$s4] = 0x00000000, [$s5] = 0x00000000
M[0] = 0x00000000, M[4] = 0x00000000, M[8] = 0x00000000
----------------------------------------------------------
Time:           0 ns, Clock = 1, PC = 0x00000004
[$zero] = 0x00000000, [$t0] = 0x00000020, [$t1] = 0x00000000
[$s0] = 0x00000000, [$s1] = 0x00000000, [$s2] = 0x00000000
[$s3] = 0x00000000, [$s4] = 0x00000000, [$s5] = 0x00000000
M[0] = 0x00000000, M[4] = 0x00000000, M[8] = 0x00000000
----------------------------------------------------------
Time:           1 ns, Clock = 0, PC = 0x00000004
[$zero] = 0x00000000, [$t0] = 0x00000020, [$t1] = 0x00000037
[$s0] = 0x00000000, [$s1] = 0x00000000, [$s2] = 0x00000000
[$s3] = 0x00000000, [$s4] = 0x00000000, [$s5] = 0x00000000
M[0] = 0x00000000, M[4] = 0x00000000, M[8] = 0x00000000
----------------------------------------------------------
Time:           1 ns, Clock = 1, PC = 0x00000008
[$zero] = 0x00000000, [$t0] = 0x00000020, [$t1] = 0x00000037
[$s0] = 0x00000000, [$s1] = 0x00000000, [$s2] = 0x00000000
[$s3] = 0x00000000, [$s4] = 0x00000000, [$s5] = 0x00000000
M[0] = 0x00000000, M[4] = 0x00000000, M[8] = 0x00000000
----------------------------------------------------------
Time:           2 ns, Clock = 0, PC = 0x00000008
[$zero] = 0x00000000, [$t0] = 0x00000020, [$t1] = 0x00000037
[$s0] = 0x00000020, [$s1] = 0x00000000, [$s2] = 0x00000000
[$s3] = 0x00000000, [$s4] = 0x00000000, [$s5] = 0x00000000
M[0] = 0x00000000, M[4] = 0x00000000, M[8] = 0x00000000
----------------------------------------------------------
Time:           2 ns, Clock = 1, PC = 0x0000000c
[$zero] = 0x00000000, [$t0] = 0x00000020, [$t1] = 0x00000037
[$s0] = 0x00000020, [$s1] = 0x00000000, [$s2] = 0x00000000
[$s3] = 0x00000000, [$s4] = 0x00000000, [$s5] = 0x00000000
M[0] = 0x00000000, M[4] = 0x00000000, M[8] = 0x00000000
----------------------------------------------------------
Time:           3 ns, Clock = 0, PC = 0x0000000c
[$zero] = 0x00000000, [$t0] = 0x00000020, [$t1] = 0x00000037
[$s0] = 0x00000037, [$s1] = 0x00000000, [$s2] = 0x00000000
[$s3] = 0x00000000, [$s4] = 0x00000000, [$s5] = 0x00000000
M[0] = 0x00000000, M[4] = 0x00000000, M[8] = 0x00000000
----------------------------------------------------------
Time:           3 ns, Clock = 1, PC = 0x00000010
[$zero] = 0x00000000, [$t0] = 0x00000020, [$t1] = 0x00000037
[$s0] = 0x00000037, [$s1] = 0x00000000, [$s2] = 0x00000000
[$s3] = 0x00000000, [$s4] = 0x00000000, [$s5] = 0x00000000
M[0] = 0x00000000, M[4] = 0x00000000, M[8] = 0x00000000
----------------------------------------------------------
Time:           4 ns, Clock = 0, PC = 0x00000010
[$zero] = 0x00000000, [$t0] = 0x00000020, [$t1] = 0x00000037
[$s0] = 0x00000037, [$s1] = 0x00000000, [$s2] = 0x00000000
[$s3] = 0x00000000, [$s4] = 0x00000000, [$s5] = 0x00000000
M[0] = 0x00000000, M[4] = 0x00000037, M[8] = 0x00000000
----------------------------------------------------------
Time:           4 ns, Clock = 1, PC = 0x00000014
[$zero] = 0x00000000, [$t0] = 0x00000020, [$t1] = 0x00000037
[$s0] = 0x00000037, [$s1] = 0x00000000, [$s2] = 0x00000000
[$s3] = 0x00000000, [$s4] = 0x00000000, [$s5] = 0x00000000
M[0] = 0x00000000, M[4] = 0x00000037, M[8] = 0x00000000
----------------------------------------------------------
Time:           5 ns, Clock = 0, PC = 0x00000014
[$zero] = 0x00000000, [$t0] = 0x00000020, [$t1] = 0x00000037
[$s0] = 0x00000037, [$s1] = 0x00000000, [$s2] = 0x00000000
[$s3] = 0x00000000, [$s4] = 0x00000000, [$s5] = 0x00000000
M[0] = 0x00000000, M[4] = 0x00000037, M[8] = 0x00000020
----------------------------------------------------------
Time:           5 ns, Clock = 1, PC = 0x00000018
[$zero] = 0x00000000, [$t0] = 0x00000020, [$t1] = 0x00000037
[$s0] = 0x00000037, [$s1] = 0x00000000, [$s2] = 0x00000000
[$s3] = 0x00000000, [$s4] = 0x00000000, [$s5] = 0x00000000
M[0] = 0x00000000, M[4] = 0x00000037, M[8] = 0x00000020
----------------------------------------------------------
Time:           6 ns, Clock = 0, PC = 0x00000018
[$zero] = 0x00000000, [$t0] = 0x00000020, [$t1] = 0x00000037
[$s0] = 0x00000037, [$s1] = 0x00000057, [$s2] = 0x00000000
[$s3] = 0x00000000, [$s4] = 0x00000000, [$s5] = 0x00000000
M[0] = 0x00000000, M[4] = 0x00000037, M[8] = 0x00000020
----------------------------------------------------------
Time:           6 ns, Clock = 1, PC = 0x0000001c
[$zero] = 0x00000000, [$t0] = 0x00000020, [$t1] = 0x00000037
[$s0] = 0x00000037, [$s1] = 0x00000057, [$s2] = 0x00000000
[$s3] = 0x00000000, [$s4] = 0x00000000, [$s5] = 0x00000000
M[0] = 0x00000000, M[4] = 0x00000037, M[8] = 0x00000020
----------------------------------------------------------
Time:           7 ns, Clock = 0, PC = 0x0000001c
[$zero] = 0x00000000, [$t0] = 0x00000020, [$t1] = 0x00000037
[$s0] = 0x00000037, [$s1] = 0x00000057, [$s2] = 0xffffffe9
[$s3] = 0x00000000, [$s4] = 0x00000000, [$s5] = 0x00000000
M[0] = 0x00000000, M[4] = 0x00000037, M[8] = 0x00000020
----------------------------------------------------------
Time:           7 ns, Clock = 1, PC = 0x00000020
[$zero] = 0x00000000, [$t0] = 0x00000020, [$t1] = 0x00000037
[$s0] = 0x00000037, [$s1] = 0x00000057, [$s2] = 0xffffffe9
[$s3] = 0x00000000, [$s4] = 0x00000000, [$s5] = 0x00000000
M[0] = 0x00000000, M[4] = 0x00000037, M[8] = 0x00000020
----------------------------------------------------------
Time:           8 ns, Clock = 0, PC = 0x00000020
[$zero] = 0x00000000, [$t0] = 0x00000020, [$t1] = 0x00000037
[$s0] = 0x00000037, [$s1] = 0x00000057, [$s2] = 0xffffffe9
[$s3] = 0x00000000, [$s4] = 0x00000000, [$s5] = 0x00000000
M[0] = 0x00000000, M[4] = 0x00000037, M[8] = 0x00000020
----------------------------------------------------------
Time:           8 ns, Clock = 1, PC = 0x00000024
[$zero] = 0x00000000, [$t0] = 0x00000020, [$t1] = 0x00000037
[$s0] = 0x00000037, [$s1] = 0x00000057, [$s2] = 0xffffffe9
[$s3] = 0x00000000, [$s4] = 0x00000000, [$s5] = 0x00000000
M[0] = 0x00000000, M[4] = 0x00000037, M[8] = 0x00000020
----------------------------------------------------------
Time:           9 ns, Clock = 0, PC = 0x00000024
[$zero] = 0x00000000, [$t0] = 0x00000020, [$t1] = 0x00000037
[$s0] = 0x00000037, [$s1] = 0x00000037, [$s2] = 0xffffffe9
[$s3] = 0x00000000, [$s4] = 0x00000000, [$s5] = 0x00000000
M[0] = 0x00000000, M[4] = 0x00000037, M[8] = 0x00000020
----------------------------------------------------------
Time:           9 ns, Clock = 1, PC = 0x00000028
[$zero] = 0x00000000, [$t0] = 0x00000020, [$t1] = 0x00000037
[$s0] = 0x00000037, [$s1] = 0x00000037, [$s2] = 0xffffffe9
[$s3] = 0x00000000, [$s4] = 0x00000000, [$s5] = 0x00000000
M[0] = 0x00000000, M[4] = 0x00000037, M[8] = 0x00000020
----------------------------------------------------------
Time:          10 ns, Clock = 0, PC = 0x00000028
[$zero] = 0x00000000, [$t0] = 0x00000020, [$t1] = 0x00000037
[$s0] = 0x00000037, [$s1] = 0x00000037, [$s2] = 0x00000000
[$s3] = 0x00000000, [$s4] = 0x00000000, [$s5] = 0x00000000
M[0] = 0x00000000, M[4] = 0x00000037, M[8] = 0x00000020
----------------------------------------------------------
Time:          10 ns, Clock = 1, PC = 0x0000002c
[$zero] = 0x00000000, [$t0] = 0x00000020, [$t1] = 0x00000037
[$s0] = 0x00000037, [$s1] = 0x00000037, [$s2] = 0x00000000
[$s3] = 0x00000000, [$s4] = 0x00000000, [$s5] = 0x00000000
M[0] = 0x00000000, M[4] = 0x00000037, M[8] = 0x00000020
----------------------------------------------------------
Time:          11 ns, Clock = 0, PC = 0x0000002c
[$zero] = 0x00000000, [$t0] = 0x00000020, [$t1] = 0x00000037
[$s0] = 0x00000037, [$s1] = 0x00000037, [$s2] = 0x00000000
[$s3] = 0x00000000, [$s4] = 0x00000000, [$s5] = 0x00000000
M[0] = 0x00000000, M[4] = 0x00000037, M[8] = 0x00000020
----------------------------------------------------------
Time:          11 ns, Clock = 1, PC = 0x00000030
[$zero] = 0x00000000, [$t0] = 0x00000020, [$t1] = 0x00000037
[$s0] = 0x00000037, [$s1] = 0x00000037, [$s2] = 0x00000000
[$s3] = 0x00000000, [$s4] = 0x00000000, [$s5] = 0x00000000
M[0] = 0x00000000, M[4] = 0x00000037, M[8] = 0x00000020
----------------------------------------------------------
Time:          12 ns, Clock = 0, PC = 0x00000030
[$zero] = 0x00000000, [$t0] = 0x00000020, [$t1] = 0x00000037
[$s0] = 0x00000037, [$s1] = 0x00000037, [$s2] = 0x00000000
[$s3] = 0x00000020, [$s4] = 0x00000000, [$s5] = 0x00000000
M[0] = 0x00000000, M[4] = 0x00000037, M[8] = 0x00000020
----------------------------------------------------------
Time:          12 ns, Clock = 1, PC = 0x00000034
[$zero] = 0x00000000, [$t0] = 0x00000020, [$t1] = 0x00000037
[$s0] = 0x00000037, [$s1] = 0x00000037, [$s2] = 0x00000000
[$s3] = 0x00000020, [$s4] = 0x00000000, [$s5] = 0x00000000
M[0] = 0x00000000, M[4] = 0x00000037, M[8] = 0x00000020
----------------------------------------------------------
Time:          13 ns, Clock = 0, PC = 0x00000034
[$zero] = 0x00000000, [$t0] = 0x00000020, [$t1] = 0x00000037
[$s0] = 0x00000037, [$s1] = 0x00000037, [$s2] = 0x00000000
[$s3] = 0x00000020, [$s4] = 0x00000000, [$s5] = 0x00000000
M[0] = 0x00000000, M[4] = 0x00000037, M[8] = 0x00000020
----------------------------------------------------------
Time:          13 ns, Clock = 1, PC = 0x00000038
[$zero] = 0x00000000, [$t0] = 0x00000020, [$t1] = 0x00000037
[$s0] = 0x00000037, [$s1] = 0x00000037, [$s2] = 0x00000000
[$s3] = 0x00000020, [$s4] = 0x00000000, [$s5] = 0x00000000
M[0] = 0x00000000, M[4] = 0x00000037, M[8] = 0x00000020
----------------------------------------------------------
Time:          14 ns, Clock = 0, PC = 0x00000038
[$zero] = 0x00000000, [$t0] = 0x00000020, [$t1] = 0x00000037
[$s0] = 0x00000037, [$s1] = 0x00000037, [$s2] = 0x00000000
[$s3] = 0x00000020, [$s4] = 0x00000001, [$s5] = 0x00000000
M[0] = 0x00000000, M[4] = 0x00000037, M[8] = 0x00000020
----------------------------------------------------------
Time:          14 ns, Clock = 1, PC = 0x0000003c
[$zero] = 0x00000000, [$t0] = 0x00000020, [$t1] = 0x00000037
[$s0] = 0x00000037, [$s1] = 0x00000037, [$s2] = 0x00000000
[$s3] = 0x00000020, [$s4] = 0x00000001, [$s5] = 0x00000000
M[0] = 0x00000000, M[4] = 0x00000037, M[8] = 0x00000020
----------------------------------------------------------
Time:          15 ns, Clock = 0, PC = 0x0000003c
[$zero] = 0x00000000, [$t0] = 0x00000020, [$t1] = 0x00000037
[$s0] = 0x00000037, [$s1] = 0x00000037, [$s2] = 0x00000000
[$s3] = 0x00000020, [$s4] = 0x00000001, [$s5] = 0x00000000
M[0] = 0x00000000, M[4] = 0x00000037, M[8] = 0x00000020
----------------------------------------------------------
Time:          15 ns, Clock = 1, PC = 0x00000040
[$zero] = 0x00000000, [$t0] = 0x00000020, [$t1] = 0x00000037
[$s0] = 0x00000037, [$s1] = 0x00000037, [$s2] = 0x00000000
[$s3] = 0x00000020, [$s4] = 0x00000001, [$s5] = 0x00000000
M[0] = 0x00000000, M[4] = 0x00000037, M[8] = 0x00000020
----------------------------------------------------------
Time:          16 ns, Clock = 0, PC = 0x00000040
[$zero] = 0x00000000, [$t0] = 0x00000020, [$t1] = 0x00000037
[$s0] = 0x00000037, [$s1] = 0x00000037, [$s2] = 0x00000037
[$s3] = 0x00000020, [$s4] = 0x00000001, [$s5] = 0x00000000
M[0] = 0x00000000, M[4] = 0x00000037, M[8] = 0x00000020
----------------------------------------------------------
Time:          16 ns, Clock = 1, PC = 0x00000044
[$zero] = 0x00000000, [$t0] = 0x00000020, [$t1] = 0x00000037
[$s0] = 0x00000037, [$s1] = 0x00000037, [$s2] = 0x00000037
[$s3] = 0x00000020, [$s4] = 0x00000001, [$s5] = 0x00000000
M[0] = 0x00000000, M[4] = 0x00000037, M[8] = 0x00000020
----------------------------------------------------------
Time:          17 ns, Clock = 0, PC = 0x00000044
[$zero] = 0x00000000, [$t0] = 0x00000020, [$t1] = 0x00000037
[$s0] = 0x00000037, [$s1] = 0x00000037, [$s2] = 0x00000037
[$s3] = 0x00000020, [$s4] = 0x00000001, [$s5] = 0x00000000
M[0] = 0x00000000, M[4] = 0x00000037, M[8] = 0x00000020
----------------------------------------------------------
Time:          17 ns, Clock = 1, PC = 0x00000038
[$zero] = 0x00000000, [$t0] = 0x00000020, [$t1] = 0x00000037
[$s0] = 0x00000037, [$s1] = 0x00000037, [$s2] = 0x00000037
[$s3] = 0x00000020, [$s4] = 0x00000001, [$s5] = 0x00000000
M[0] = 0x00000000, M[4] = 0x00000037, M[8] = 0x00000020
----------------------------------------------------------
Time:          18 ns, Clock = 0, PC = 0x00000038
[$zero] = 0x00000000, [$t0] = 0x00000020, [$t1] = 0x00000037
[$s0] = 0x00000037, [$s1] = 0x00000037, [$s2] = 0x00000037
[$s3] = 0x00000020, [$s4] = 0x00000000, [$s5] = 0x00000000
M[0] = 0x00000000, M[4] = 0x00000037, M[8] = 0x00000020
----------------------------------------------------------
Time:          18 ns, Clock = 1, PC = 0x0000003c
[$zero] = 0x00000000, [$t0] = 0x00000020, [$t1] = 0x00000037
[$s0] = 0x00000037, [$s1] = 0x00000037, [$s2] = 0x00000037
[$s3] = 0x00000020, [$s4] = 0x00000000, [$s5] = 0x00000000
M[0] = 0x00000000, M[4] = 0x00000037, M[8] = 0x00000020
----------------------------------------------------------
Time:          19 ns, Clock = 0, PC = 0x0000003c
[$zero] = 0x00000000, [$t0] = 0x00000020, [$t1] = 0x00000037
[$s0] = 0x00000037, [$s1] = 0x00000037, [$s2] = 0x00000037
[$s3] = 0x00000020, [$s4] = 0x00000000, [$s5] = 0x00000000
M[0] = 0x00000000, M[4] = 0x00000037, M[8] = 0x00000020
----------------------------------------------------------
Time:          19 ns, Clock = 1, PC = 0x0000007c
[$zero] = 0x00000000, [$t0] = 0x00000020, [$t1] = 0x00000037
[$s0] = 0x00000037, [$s1] = 0x00000037, [$s2] = 0x00000037
[$s3] = 0x00000020, [$s4] = 0x00000000, [$s5] = 0x00000000
M[0] = 0x00000000, M[4] = 0x00000037, M[8] = 0x00000020
----------------------------------------------------------
Time:          20 ns, Clock = 0, PC = 0x0000007c
[$zero] = 0x00000000, [$t0] = 0x00000020, [$t1] = 0x00000037
[$s0] = 0x00000037, [$s1] = 0x00000037, [$s2] = 0x00000037
[$s3] = 0x00000020, [$s4] = 0x00000000, [$s5] = 0x00000000
M[0] = 0x00000000, M[4] = 0x00000037, M[8] = 0x00000020
----------------------------------------------------------
Time:          20 ns, Clock = 1, PC = 0x00000080
[$zero] = 0x00000000, [$t0] = 0x00000020, [$t1] = 0x00000037
[$s0] = 0x00000037, [$s1] = 0x00000037, [$s2] = 0x00000037
[$s3] = 0x00000020, [$s4] = 0x00000000, [$s5] = 0x00000000
M[0] = 0x00000000, M[4] = 0x00000037, M[8] = 0x00000020
----------------------------------------------------------
Time:          21 ns, Clock = 0, PC = 0x00000080
[$zero] = 0x00000000, [$t0] = 0x00000020, [$t1] = 0x00000037
[$s0] = 0x00000037, [$s1] = 0x00000037, [$s2] = 0x00000037
[$s3] = 0x00000020, [$s4] = 0x00000000, [$s5] = 0x00000000
M[0] = 0x00000000, M[4] = 0x00000037, M[8] = 0x00000020
----------------------------------------------------------
Time:          21 ns, Clock = 1, PC = 0x00000084
[$zero] = 0x00000000, [$t0] = 0x00000020, [$t1] = 0x00000037
[$s0] = 0x00000037, [$s1] = 0x00000037, [$s2] = 0x00000037
[$s3] = 0x00000020, [$s4] = 0x00000000, [$s5] = 0x00000000
M[0] = 0x00000000, M[4] = 0x00000037, M[8] = 0x00000020
----------------------------------------------------------
Time:          22 ns, Clock = 0, PC = 0x00000084
[$zero] = 0x00000000, [$t0] = 0x00000020, [$t1] = 0x00000037
[$s0] = 0x00000037, [$s1] = 0x00000037, [$s2] = 0x00000037
[$s3] = 0x00000020, [$s4] = 0x00000000, [$s5] = 0x00000000
M[0] = 0x00000000, M[4] = 0x00000037, M[8] = 0x00000020
----------------------------------------------------------
Time:          22 ns, Clock = 1, PC = 0x00000088
[$zero] = 0x00000000, [$t0] = 0x00000020, [$t1] = 0x00000037
[$s0] = 0x00000037, [$s1] = 0x00000037, [$s2] = 0x00000037
[$s3] = 0x00000020, [$s4] = 0x00000000, [$s5] = 0x00000000
M[0] = 0x00000000, M[4] = 0x00000037, M[8] = 0x00000020
----------------------------------------------------------
Time:          23 ns, Clock = 0, PC = 0x00000088
[$zero] = 0x00000000, [$t0] = 0x00000020, [$t1] = 0x00000037
[$s0] = 0x00000037, [$s1] = 0x00000037, [$s2] = 0x00000037
[$s3] = 0x00000020, [$s4] = 0x00000000, [$s5] = 0x00000000
M[0] = 0x00000000, M[4] = 0x00000037, M[8] = 0x00000020
----------------------------------------------------------
Time:          23 ns, Clock = 1, PC = 0x0000008c
[$zero] = 0x00000000, [$t0] = 0x00000020, [$t1] = 0x00000037
[$s0] = 0x00000037, [$s1] = 0x00000037, [$s2] = 0x00000037
[$s3] = 0x00000020, [$s4] = 0x00000000, [$s5] = 0x00000000
M[0] = 0x00000000, M[4] = 0x00000037, M[8] = 0x00000020
----------------------------------------------------------
Time:          24 ns, Clock = 0, PC = 0x0000008c
[$zero] = 0x00000000, [$t0] = 0x00000020, [$t1] = 0x00000037
[$s0] = 0x00000037, [$s1] = 0x00000037, [$s2] = 0x00000037
[$s3] = 0x00000020, [$s4] = 0x00000000, [$s5] = 0x00000000
M[0] = 0x00000000, M[4] = 0x00000037, M[8] = 0x00000020
----------------------------------------------------------
Time:          24 ns, Clock = 1, PC = 0x00000090
[$zero] = 0x00000000, [$t0] = 0x00000020, [$t1] = 0x00000037
[$s0] = 0x00000037, [$s1] = 0x00000037, [$s2] = 0x00000037
[$s3] = 0x00000020, [$s4] = 0x00000000, [$s5] = 0x00000000
M[0] = 0x00000000, M[4] = 0x00000037, M[8] = 0x00000020
----------------------------------------------------------
Time:          25 ns, Clock = 0, PC = 0x00000090
[$zero] = 0x00000000, [$t0] = 0x00000020, [$t1] = 0x00000037
[$s0] = 0x00000037, [$s1] = 0x00000037, [$s2] = 0x00000037
[$s3] = 0x00000020, [$s4] = 0x00000000, [$s5] = 0x00000000
M[0] = 0x00000000, M[4] = 0x00000037, M[8] = 0x00000020
----------------------------------------------------------
Time:          25 ns, Clock = 1, PC = 0x00000094
[$zero] = 0x00000000, [$t0] = 0x00000020, [$t1] = 0x00000037
[$s0] = 0x00000037, [$s1] = 0x00000037, [$s2] = 0x00000037
[$s3] = 0x00000020, [$s4] = 0x00000000, [$s5] = 0x00000000
M[0] = 0x00000000, M[4] = 0x00000037, M[8] = 0x00000020
----------------------------------------------------------
Time:          26 ns, Clock = 0, PC = 0x00000094
[$zero] = 0x00000000, [$t0] = 0x00000020, [$t1] = 0x00000037
[$s0] = 0x00000037, [$s1] = 0x00000037, [$s2] = 0x00000037
[$s3] = 0x00000020, [$s4] = 0x00000000, [$s5] = 0x00000000
M[0] = 0x00000000, M[4] = 0x00000037, M[8] = 0x00000020
----------------------------------------------------------
Time:          26 ns, Clock = 1, PC = 0x00000098
[$zero] = 0x00000000, [$t0] = 0x00000020, [$t1] = 0x00000037
[$s0] = 0x00000037, [$s1] = 0x00000037, [$s2] = 0x00000037
[$s3] = 0x00000020, [$s4] = 0x00000000, [$s5] = 0x00000000
M[0] = 0x00000000, M[4] = 0x00000037, M[8] = 0x00000020
----------------------------------------------------------
Time:          27 ns, Clock = 0, PC = 0x00000098
[$zero] = 0x00000000, [$t0] = 0x00000020, [$t1] = 0x00000037
[$s0] = 0x00000037, [$s1] = 0x00000037, [$s2] = 0x00000037
[$s3] = 0x00000020, [$s4] = 0x00000000, [$s5] = 0x00000000
M[0] = 0x00000000, M[4] = 0x00000037, M[8] = 0x00000020
----------------------------------------------------------
Time:          27 ns, Clock = 1, PC = 0x0000009c
[$zero] = 0x00000000, [$t0] = 0x00000020, [$t1] = 0x00000037
[$s0] = 0x00000037, [$s1] = 0x00000037, [$s2] = 0x00000037
[$s3] = 0x00000020, [$s4] = 0x00000000, [$s5] = 0x00000000
M[0] = 0x00000000, M[4] = 0x00000037, M[8] = 0x00000020
----------------------------------------------------------
Time:          28 ns, Clock = 0, PC = 0x0000009c
[$zero] = 0x00000000, [$t0] = 0x00000020, [$t1] = 0x00000037
[$s0] = 0x00000037, [$s1] = 0x00000037, [$s2] = 0x00000037
[$s3] = 0x00000020, [$s4] = 0x00000000, [$s5] = 0x00000000
M[0] = 0x00000000, M[4] = 0x00000037, M[8] = 0x00000020
----------------------------------------------------------
Time:          28 ns, Clock = 1, PC = 0x000000a0
[$zero] = 0x00000000, [$t0] = 0x00000020, [$t1] = 0x00000037
[$s0] = 0x00000037, [$s1] = 0x00000037, [$s2] = 0x00000037
[$s3] = 0x00000020, [$s4] = 0x00000000, [$s5] = 0x00000000
M[0] = 0x00000000, M[4] = 0x00000037, M[8] = 0x00000020
----------------------------------------------------------
Time:          29 ns, Clock = 0, PC = 0x000000a0
[$zero] = 0x00000000, [$t0] = 0x00000020, [$t1] = 0x00000037
[$s0] = 0x00000037, [$s1] = 0x00000037, [$s2] = 0x00000037
[$s3] = 0x00000020, [$s4] = 0x00000000, [$s5] = 0x00000000
M[0] = 0x00000000, M[4] = 0x00000037, M[8] = 0x00000020
----------------------------------------------------------
